{
    "description": "EfeuOperator",
    "rights": [
        {
            "section": "Address",
            "functions": [
                "PostAddAddresses",
                "PutAddress",
                "FindAddressesByFinder",
                "DeleteAddress"
            ]
        },
        {
            "section": "AdminApp",
            "functions": [
                "PostAdminModifyOrder",
                "PostDeleteOrder",
                "PostLockVehicle",
                "PostUnlockVehicle",
                "GetVehicleLocks",
                "PostCreateBoxRequestAdmin",
                "GetVehicleInformations",
                "GetTourOverview",
                "GetBoxOrderInformations",
                "GetPackageInformations",
                "PostDeleteToursForVehicle"
            ]
        },
        {
            "section": "App",
            "functions": [
                "GetPackageImage"
            ]
        },
        {
            "section": "BoxMountingDevice",
            "functions": [
                "PostAddBoxMountingDevices",
                "PutBoxMountingDevice",
                "FindBoxMountingDevicesByFinder",
                "DeleteBoxMountingDevice"
            ]
        },
        {
            "section": "Building",
            "functions": [
                "PostAddBuildings",
                "PutBuilding",
                "FindBuildingsByFinder",
                "DeleteBuilding"
            ]
        },
        {
            "section": "ChargingStation",
            "functions": [
                "PostAddChargingStations",
                "PutChargingStation",
                "FindChargingStationsByFinder",
                "DeleteChargingStation"
            ]
        },
        {
            "section": "Contact",
            "functions": [
                "PostAddContacts",
                "PutContact",
                "FindContactsByFinder",
                "DeleteContact"
            ]
        },
        {
            "section": "DepotEvent",
            "functions": [
                "PostAssignBoxToOrder",
                "PostPlaceBoxOnMount",
                "PostPlacePackageInBox",
                "PostReceivePackageFromBox",
                "PostRemoveWasteFromBox",
                "PostCompleteCommissioning",
                "PostLabelParcel",
                "PostLabelOutboundParcel",
                "PostCompleteOutboundParcelStorage",
                "PostCompleteParcelStorage",
                "PostConfirmSelfPickup",
                "PostConfirmKepPickup",
                "PostAddInformationToOutboundPackage",
                "PostDeactivateBox",
                "PostStoreBox"
            ]
        },
        {
            "section": "IntraLogApp",
            "functions": [
                "GetComissionings",
                "GetComissioning",
                "PostDeleteCreatedPackageOrder",
                "GetTransitionParcels",
                "GetBoxMountingDevices",
                "GetAppBarNumbers",
                "GetParcels",
                "GetWarehousePlaces",
                "GetIncomingBoxes",
                "GetOutboundParcels",
                "PostCleanupIntralogData",
                "GetContacts",
                "GetSelfPickupParcelsForContact",
                "GetKepParcels",
                "GetBoxInformations",
                "GetAllParcels",
                "PostResetIntraDemo",
                "PostOpenBoxIntra",
                "PostResetTestData",
                "PostCompleteTestCommissioning",
                "PostCompleteTestCustomerStops",
                "PostTestRegisterPackages"
            ]
        },
        {
            "section": "Order",
            "functions": [
                "PostAddOrders",
                "PutOrder",
                "DeleteOrders",
                "FindOrdersByFinder"
            ]
        },
        {
            "section": "ProcessMgmt",
            "functions": [
                "PostStartPlanning",
                "GetAllToursForVehicle"
            ]
        },
        {
            "section": "Status",
            "functions": [
                "GetMountStatus",
                "GetVehicleStatusList",
                "GetVehicleStatus",
                "GetBoxStatusList",
                "GetBoxStatus",
                "GetTourStatusList"
            ]
        },
        {
            "section": "SyncMeetingPoint",
            "functions": [
                "FindSyncMeetingPointsByFinder"
            ]
        },
        {
            "section": "TransportBox",
            "functions": [
                "FindTransportBoxesByFinder"
            ]
        },
        {
            "section": "User",
            "functions": [
                "AddUser",
                "PutUser",
                "FindUsersByFinder",
                "DeleteUser",
                "RegisterUser",
                "ResetUserPwd"
            ]
        },
        {
            "section": "UserApp",
            "functions": [
                "PostDeleteBoxRequest",
                "PostReceivePackage",
                "PostReuseBox",
                "PostSendPackage",
                "PostPlaceWasteInBox",
                "PostOpenBox"
            ]
        },
        {
            "section": "Vehicle",
            "functions": [
                "FindVehiclesByFinder"
            ]
        },
        {
            "section": "XServer2",
            "functions": [
                "CalculateRoute",
                "CalculateRouteStartEnd",
                "SearchByAddress",
                "SearchByText",
                "SearchByPosition"
            ]
        }
    ]
}