﻿[
  {
    "ident": "Test-SyncMP-id1",
    "info": "Bei Schule",
    "longitude": 8.590514,
    "latitude": 49.117514
  },
  {
    "ident": "Test-SyncMP-id2",
    "info": "Bei Hochschule",
    "longitude": 8.590855,
    "latitude": 49.117105
  },
  {
    "ident": "Test-SyncMP-id3",
    "info": "Bei Hochschule",
    "longitude": 8.590775,
    "latitude": 49.116778
  },
  {
    "ident": "Test-SyncMP-id4",
    "info": "Bei STadtverwaltung",
    "longitude": 8.591021,
    "latitude": 49.117112
  },
  {
    "ident": "Test-SyncMP-id5",
    "info": "Bei SEW",
    "longitude": 8.590546,
    "latitude": 49.117586
  },
  {
    "ident": "Test-SyncMP-id6",
    "info": "Bei SEW",
    "longitude": 8.590777,
    "latitude": 49.117417
  },
  {
    "ident": "Test-SyncMP-id7",
    "info": "Bei Depot",
    "longitude": 8.588183,
    "latitude": 49.117099
  },
  {
    "ident": "Test-SyncMP-id8",
    "info": "Bei Wohnhaus",
    "longitude": 8.588521,
    "latitude": 49.117199
  },
  {
    "ident": "Test-SyncMP-id9",
    "info": "Bei Wohnhaus",
    "longitude": 8.588373,
    "latitude": 49.117167
  },
  {
    "ident": "Test-SyncMP-id10",
    "info": "Bei Wohnhaus",
    "longitude": 8.588802,
    "latitude": 49.117276
  },
  {
    "ident": "Test-SyncMP-id11",
    "info": "Bei Wohnhaus",
    "longitude": 8.589768,
    "latitude": 49.117588
  },
  {
    "ident": "Test-SyncMP-id12",
    "info": "Bei Wohnhaus",
    "longitude": 8.589704,
    "latitude": 49.117574
  },
  {
    "ident": "Test-SyncMP-id13",
    "info": "Bei Wohnhaus",
    "longitude": 8.590026,
    "latitude": 49.117676
  },
  {
    "ident": "Test-SyncMP-id14",
    "info": "Bei Wohnhaus",
    "longitude": 8.590396,
    "latitude": 49.116574
  },
  {
    "ident": "Test-SyncMP-id15",
    "info": "Bei Wohnhaus",
    "longitude": 8.590042,
    "latitude": 49.116486
  },
  {
    "ident": "Test-SyncMP-id16",
    "info": "Bei Wohnhaus",
    "longitude": 8.589924,
    "latitude": 49.116465
  },
  {
    "ident": "Test-SyncMP-id17",
    "info": "Bei Wohnhaus",
    "longitude": 8.589838,
    "latitude": 49.11643
  },
  {
    "ident": "Test-SyncMP-id18",
    "info": "Bei Wohnhaus",
    "longitude": 8.589533,
    "latitude": 49.116282
  },
  {
    "ident": "Test-SyncMP-id19",
    "info": "Bei Wohnhaus",
    "longitude": 8.589157,
    "latitude": 49.11617
  },
  {
    "ident": "Test-SyncMP-id20",
    "info": "Bei Parkplatz",
    "longitude": 8.588916,
    "latitude": 49.116257
  },
  {
    "ident": "Test-SyncMP-id21",
    "info": "Bei Parkplatz",
    "longitude": 8.58868,
    "latitude": 49.116598
  },
  {
    "ident": "Test-SyncMP-id22",
    "info": "Bei Parkplatz",
    "longitude": 8.590289,
    "latitude": 49.117718
  },
  {
    "ident": "Test-SyncMP-id23",
    "info": "Auf dem Campusgelände",
    "longitude": 8.589115,
    "latitude": 49.116561
  },
  {
    "ident": "Test-SyncMP-id24",
    "info": "Auf dem Campusgelände",
    "longitude": 8.590127,
    "latitude": 49.116852
  },
  {
    "ident": "Test-SyncMP-id25",
    "info": "Auf dem Campusgelände",
    "longitude": 8.589017,
    "latitude": 49.116929
  },
  {
    "ident": "Test-SyncMP-id26",
    "info": "Auf dem Campusgelände",
    "longitude": 8.58876,
    "latitude": 49.116178
  }
]