\relax 
\providecommand\hyper@newdestlabel[2]{}
\providecommand\HyperFirstAtBeginDocument{\AtBeginDocument}
\HyperFirstAtBeginDocument{\ifx\hyper@anchor\@undefined
\global\let\oldcontentsline\contentsline
\gdef\contentsline#1#2#3#4{\oldcontentsline{#1}{#2}{#3}}
\global\let\oldnewlabel\newlabel
\gdef\newlabel#1#2{\newlabelxx{#1}#2}
\gdef\newlabelxx#1#2#3#4#5#6{\oldnewlabel{#1}{{#2}{#3}}}
\AtEndDocument{\ifx\hyper@anchor\@undefined
\let\contentsline\oldcontentsline
\let\newlabel\oldnewlabel
\fi}
\fi}
\global\let\hyper@last\relax 
\gdef\HyperFirstAtBeginDocument#1{#1}
\providecommand\HyField@AuxAddToFields[1]{}
\providecommand\HyField@AuxAddToCoFields[2]{}
\providecommand\@newglossary[4]{}
\@newglossary{main}{glg}{gls}{glo}
\@newglossary{acronym}{alg}{acr}{acn}
\providecommand\@glsorder[1]{}
\providecommand\@istfilename[1]{}
\@istfilename{main.ist}
\@glsorder{word}
\@writefile{toc}{\contentsline {section}{\numberline {1}Scope of the document}{3}{section.1}\protected@file@percent }
\@writefile{toc}{\contentsline {section}{\numberline {2}Allgemeine Beschreibung}{4}{section.2}\protected@file@percent }
\@writefile{toc}{\contentsline {section}{\numberline {3}Entwicklung}{4}{section.3}\protected@file@percent }
\@writefile{toc}{\contentsline {section}{\numberline {4}Erster Start des "efeuPortal"}{4}{section.4}\protected@file@percent }
\@writefile{lof}{\contentsline {figure}{\numberline {1}{\ignorespaces efeuPortal}}{5}{figure.1}\protected@file@percent }
\newlabel{fig:initial-efeuPortal}{{1}{5}{efeuPortal}{figure.1}{}}
\@writefile{toc}{\contentsline {paragraph}{Login des EfeuAdministrator's}{5}{section*.3}\protected@file@percent }
\@writefile{toc}{\contentsline {subparagraph}{Login}{5}{section*.4}\protected@file@percent }
\@writefile{lof}{\contentsline {figure}{\numberline {2}{\ignorespaces efeuPortal (Administrator Login)}}{5}{figure.2}\protected@file@percent }
\newlabel{fig:login-efeuAdministrator}{{2}{5}{efeuPortal (Administrator Login)}{figure.2}{}}
\newlabel{lst:login-efeu-administrator-request}{{1}{6}{Sample "EfeuAdministrator Request"}{lstlisting.1}{}}
\@writefile{lol}{\contentsline {lstlisting}{\numberline {1}Sample "EfeuAdministrator Request"}{6}{lstlisting.1}\protected@file@percent }
\newlabel{lst:login-efeu-administrator-response}{{2}{6}{Sample "EfeuAdministrator Response"}{lstlisting.2}{}}
\@writefile{lol}{\contentsline {lstlisting}{\numberline {2}Sample "EfeuAdministrator Response"}{6}{lstlisting.2}\protected@file@percent }
\@writefile{toc}{\contentsline {subsection}{\numberline {4.1}Tenant}{6}{subsection.4.1}\protected@file@percent }
\@writefile{lof}{\contentsline {figure}{\numberline {3}{\ignorespaces Section Tenant}}{6}{figure.3}\protected@file@percent }
\newlabel{fig:section-tenant-efeuPortal}{{3}{6}{Section Tenant}{figure.3}{}}
\@writefile{lof}{\contentsline {figure}{\numberline {4}{\ignorespaces Section Tenant erzeugen}}{7}{figure.4}\protected@file@percent }
\newlabel{fig:section-tenant-create-efeuPortal}{{4}{7}{Section Tenant erzeugen}{figure.4}{}}
\@writefile{toc}{\contentsline {paragraph}{Neuen Tenant anlegen}{7}{figure.4}\protected@file@percent }
\newlabel{lst:tenant-configuration-request}{{3}{7}{Sample "Tenant Konfiguration Request"}{lstlisting.3}{}}
\@writefile{lol}{\contentsline {lstlisting}{\numberline {3}Sample "Tenant Konfiguration Request"}{7}{lstlisting.3}\protected@file@percent }
\newlabel{lst:tenant-configuration-response}{{4}{8}{Sample "Tenant Konfiguration response"}{lstlisting.4}{}}
\@writefile{lol}{\contentsline {lstlisting}{\numberline {4}Sample "Tenant Konfiguration response"}{8}{lstlisting.4}\protected@file@percent }
\@writefile{lof}{\contentsline {figure}{\numberline {5}{\ignorespaces Section User}}{10}{figure.5}\protected@file@percent }
\newlabel{fig:section-user-efeuPortal}{{5}{10}{Section User}{figure.5}{}}
\@writefile{toc}{\contentsline {paragraph}{User für die unterschiedlichen Rollen anlegen}{10}{figure.5}\protected@file@percent }
\newlabel{lst:user-create-request}{{5}{10}{Sample "Create User Request"}{lstlisting.5}{}}
\@writefile{lol}{\contentsline {lstlisting}{\numberline {5}Sample "Create User Request"}{10}{lstlisting.5}\protected@file@percent }
\newlabel{lst:user-create-response}{{6}{10}{Sample "Create User response"}{lstlisting.6}{}}
\@writefile{lol}{\contentsline {lstlisting}{\numberline {6}Sample "Create User response"}{10}{lstlisting.6}\protected@file@percent }
\@writefile{toc}{\contentsline {paragraph}{Stammdaten erzeugen}{11}{section*.8}\protected@file@percent }
\@writefile{toc}{\contentsline {subparagraph}{TransportBoxTypes}{11}{section*.9}\protected@file@percent }
\@writefile{toc}{\contentsline {subparagraph}{TransportBoxes}{11}{section*.10}\protected@file@percent }
\@writefile{toc}{\contentsline {subparagraph}{und viele mehr....}{11}{section*.11}\protected@file@percent }
\@writefile{toc}{\contentsline {subsection}{\numberline {4.2}Rechte und Rollen}{11}{subsection.4.2}\protected@file@percent }
\@writefile{toc}{\contentsline {paragraph}{Rollen und ihre Aufgabe}{11}{section*.12}\protected@file@percent }
\@writefile{toc}{\contentsline {subparagraph}{EfeuAdministrator}{11}{section*.13}\protected@file@percent }
\@writefile{toc}{\contentsline {subparagraph}{EfeuSystem}{11}{section*.14}\protected@file@percent }
\@writefile{toc}{\contentsline {subparagraph}{EfeuOperator}{11}{section*.15}\protected@file@percent }
\@writefile{toc}{\contentsline {subparagraph}{EfeuUser}{11}{section*.16}\protected@file@percent }
\@writefile{toc}{\contentsline {subparagraph}{EfeuHardware}{11}{section*.17}\protected@file@percent }
\@writefile{toc}{\contentsline {section}{\numberline {5}Testplan der Einzelkomponenten (PTV Group)}{12}{section.5}\protected@file@percent }
\@writefile{toc}{\contentsline {subsection}{\numberline {5.1}Adress}{12}{subsection.5.1}\protected@file@percent }
\@writefile{toc}{\contentsline {paragraph}{Eine neu Addresse erzeugen}{12}{section*.18}\protected@file@percent }
\@writefile{toc}{\contentsline {paragraph}{Addresse suchen}{12}{section*.19}\protected@file@percent }
\@writefile{toc}{\contentsline {paragraph}{Addresse editieren}{12}{section*.20}\protected@file@percent }
\@writefile{toc}{\contentsline {subsection}{\numberline {5.2}Contact}{12}{subsection.5.2}\protected@file@percent }
\@writefile{toc}{\contentsline {subsection}{\numberline {5.3}Building}{12}{subsection.5.3}\protected@file@percent }
\@writefile{toc}{\contentsline {paragraph}{Neue Buildings erzeugen}{12}{section*.21}\protected@file@percent }
\@writefile{toc}{\contentsline {subsection}{\numberline {5.4}BoxMountingDevice}{12}{subsection.5.4}\protected@file@percent }
\@writefile{toc}{\contentsline {subsection}{\numberline {5.5}ChargingStation}{12}{subsection.5.5}\protected@file@percent }
\@writefile{toc}{\contentsline {subsection}{\numberline {5.6}KEP}{12}{subsection.5.6}\protected@file@percent }
\@writefile{toc}{\contentsline {subsection}{\numberline {5.7}SyncMeetingPoint}{12}{subsection.5.7}\protected@file@percent }
\@writefile{toc}{\contentsline {subsection}{\numberline {5.8}TransportBox}{12}{subsection.5.8}\protected@file@percent }
\@writefile{toc}{\contentsline {subsection}{\numberline {5.9}Vehicle}{12}{subsection.5.9}\protected@file@percent }
\@writefile{toc}{\contentsline {subsection}{\numberline {5.10}Order}{12}{subsection.5.10}\protected@file@percent }
\@writefile{toc}{\contentsline {subsection}{\numberline {5.11}Planning}{12}{subsection.5.11}\protected@file@percent }
\@writefile{toc}{\contentsline {subsection}{\numberline {5.12}xServer}{12}{subsection.5.12}\protected@file@percent }
\@writefile{toc}{\contentsline {subsection}{\numberline {5.13}reservation}{12}{subsection.5.13}\protected@file@percent }
\gdef \@abspage@last{14}
