{
	"addresses": [{
			"type": "CUSTOMER",
			"zipCode": "76646",
			"city": "Bruchsal",
			"street": "Campus",
			"houseNumber": "18",
			"country": "Germany",
			"state": "BW"
		}
	],
	"boxMountingDevices": [{
			"type": "PUBLIC_ENV",
			"mountCapacity": 1,
			"longitude": 8.588694,
			"latitude": 49.117243,
			"info": "Hochschule"
		}
	],
	"buildings": [{
			"type": "CUSTOMER"
		}
	],
	"syncMeetingPoints": [{
			"longitude": 8.588602,
			"latitude": 49.117208
		}
	],
	"contacts": [{
			"firstname": "Vorname",
			"lastname": "Nachname",
			"syncAvailabilityTimeSlots": [{
					"day": 1,
					"timeSlots": {
						"start": "17:00:00",
						"end": "20:00:00"
					}
				}, {
					"day": 2,
					"timeSlots": {
						"start": "17:00:00",
						"end": "20:00:00"
					}
				}, {
					"day": 3,
					"timeSlots": {
						"start": "17:00:00",
						"end": "20:00:00"
					}
				}, {
					"day": 4,
					"timeSlots": {
						"start": "17:00:00",
						"end": "20:00:00"
					}
				}, {
					"day": 5,
					"timeSlots": {
						"start": "14:00:00",
						"end": "20:00:00"
					}
				}, {
					"day": 6,
					"timeSlots": {
						"start": "09:00:00",
						"end": "12:00:00"
					}
				}
			]
		}
	]
}
