{
	"addresses": [{
			"type": "CUSTOMER",
			"zipCode": "76646",
			"city": "Bruchsal",
			"street": "Campus",
			"houseNumber": "13",
			"country": "Germany",
			"state": "BW"
		}
	],
	"buildings": [{
			"type": "CUSTOMER"
		}
	],
	"contacts": [{
			"firstname": "Alice",
			"lastname": "Wonderland",
			"asyncAvailabilityTimeSlots": [{
					"day": 1,
					"timeSlots": {
						"start": "12:00:00",
						"end": "14:00:00"
					}
				}, {
					"day": 2,
					"timeSlots": {
						"start": "12:00:00",
						"end": "14:00:00"
					}
				}, {
					"day": 3,
					"timeSlots": {
						"start": "12:00:00",
						"end": "14:00:00"
					}
				}, {
					"day": 4,
					"timeSlots": {
						"start": "12:00:00",
						"end": "14:00:00"
					}
				}, {
					"day": 5,
					"timeSlots": {
						"start": "12:00:00",
						"end": "14:00:00"
					}
				}, {
					"day": 6,
					"timeSlots": {
						"start": "12:00:00",
						"end": "14:00:00"
					}
				}
			]
		}
	]
}
