JSON um ein Depot mit Inhalten (BoxMountingDevices, Building) anzulegen. Daten sind für AddAddress API
{
   "addresses":[
      {
         "label":"Quartiersdepot",
         "type":"DEPOT",
         "zipCode":"76646",
         "city":"Bruchsal",
         "street":"Campus",
         "houseNumber":"6",
         "country":"Germany",
         "state":"BW",
         "longitude":8.588087,
         "latitude":49.117018
      }
   ],
   "boxMountingDevices":[
      {
         "type":"DEPOT",
         "mountCapacity":1,
         "longitude":8.588175,
         "latitude":49.116991,
         "info":"public"
      },
      {
         "type":"DEPOT",
         "mountCapacity":1,
         "longitude":8.588164,
         "latitude":49.117016,
         "info":"public"
      }
   ],
   "buildings":[
      {
         "type":"DEPOT"
      }
   ],
   "contacts":[
      {
         "firstname":"Mario",
         "lastname":"Fürth",
         "synchron":true,
         "syncAvailabilityTimeSlots":[
            {
               "day":0,
               "timeSlots":{
                  "start":"06:00:00",
                  "end":"18:00:00"
               }
            },
            {
               "day":1,
               "timeSlots":{
                  "start":"06:00:00",
                  "end":"18:00:00"
               }
            },
            {
               "day":2,
               "timeSlots":{
                  "start":"06:00:00",
                  "end":"18:00:00"
               }
            },
            {
               "day":3,
               "timeSlots":{
                  "start":"06:00:00",
                  "end":"18:00:00"
               }
            },
            {
               "day":4,
               "timeSlots":{
                  "start":"06:00:00",
                  "end":"18:00:00"
               }
            },
            {
               "day":5,
               "timeSlots":{
                  "start":"06:00:00",
                  "end":"18:00:00"
               }
            },
            {
               "day":6,
               "timeSlots":{
                  "start":"08:00:00",
                  "end":"14:00:00"
               }
            }
         ],
         "birthday":"1964-05-13T00:00:00.000Z",
         "email":"depot@efeuCampus.com",
         "additionalInfos":[
            {
               "key":"4",
               "value":"DEPOT_WORKER"
            }
         ]
      }
   ]
}